"title","diameter","number","purpose","check_date","source_id","user_id","note"
"ЛК-15X","15","7232450","подпитка","3 кв. 2018","1","1",
"PoWoGaz-JS-16-01","40","40077245","подпитка","2 кв.2023","3","1",
"PoWoGaz-2,5","20","200703011450","подпитка","3 кв. 2018","6","1",
"ЛК-15X","15","7165464","подпитка","n/a","8","1",
"PoWoGaz-50","50","12557283","подпитка","3 кв. 2019","9","1",
"ЛК-20Х","20","0004183","подпитка","2кв. 2021","10","1",
"ЛК-20Х","20","0004230","подпитка","2кв.2021","11","1",
"ЛК-15Х","15","7165451","подпитка","3 кв. 2018","12","1",
"ЛК-15Х","15","7231422","хозбыт","3 кв. 2018","12","1",
"ET-1.5","15","034429303","подпитка","3 кв. 2018","15","1",
"ЛК-15Х","15","0044516","подпитка","3 кв. 2017","16","1",
"ETR-20Х","20","200801007975","подпитка","2 кв. 2020","17","1",
"МЕТРОН-25","25","6105120","подпитка","3 кв. 2017","18","1",
"PoWoGaz-1.5","15","12204951","подпитка","3 кв.2020","19","1",
"PoWoGaz-JS-16-01","40","40122761","подпитка","2 кв.2023","20","1",
"СТВ-80","80","06196490","подпитка","2 кв. 2018","21","1",
"ЛК-15Х","15","7168655","хозбыт","2 кв. 2017","24","1",
"ЛК-15Х","15","7157369","подпитка","2 кв. 2017","24","1",
"SmartС+ JS 1,6-0,2","15","63154827","подпитка","3кв.2023","27","1",
"МТК-40","40","02022219","подпитка","n/a","30","1",
"PoWoGaz-2,5","20","12205040","подпитка","4кв.2020","31","1",
"SmartС+ JS 1,6-0,2","15","64088137","подпитка","3кв.2023","33","1",
"PoWoGaz-1,5","15","10695492","подпитка","3кв.2020","34","1",
"ЛК-15Х","15","7258920","хозбыт","2 кв. 2021","35","1",
"ЛК-15Х","15","7159708","подпитка","2 кв. 2021","35","1",
"ЛК-15Х","15","0255820","подпитка","4 кв. 2018","36","1",
"SmartС+ JS 1,6-0,2","15","63154771","подпитка","3кв. 2023","36","1",
"СТВ-100","100","030240","подпитка","4кв.2020","41","1",
"ЛК-15Х","15","0070958","хозбыт","3кв.2017","45","1",
"ЛК-20Х","20","003963","подпитка","2кв.2021","45","1",
"ЛК-15Х","15","7766570","подпитка","2 кв. 2018","52","1",
"PoWoGaz-100","100","12538057","подпитка","4кв.2018","53","1",
"Inwensus-25","25","23089924","гвс","2 кв.2018","54","1",
"ЛК-20Х","20","0001418","подпитка","n/a","54","1",
"PoWoGaz-2,5","20","12205287","подпитка","2 кв.2020","55","1",
"SmartС+ JS 1,6-0,2","15","63154853","подпитка","3кв.2023","56","1",
"ЛК-15Х","15","7901007","хозбыт","3кв. 2018","63","1",
"ETR-20Х","20","200703011445","подпитка","2 кв.2020","63","1",
"MWN-65","65","12557243","подпитка","4кв.2020","69","1",
"ЛК-15Х","15","7157392","подпитка","2 кв. 2017","70","1",
"SmartС+ JS 1,6-0,2","15","63154808","подпитка","3кв.2023","71","1",
"ЛК-15Х","15","7159096","подпитка","4 кв. 2018","72","1",
"PoWoGaz-2,5","20","1220528","подпитка","2 кв.2020","73","1",
"?????","15","?????","подпитка","3 кв.2020","74","1",
"PoWoGaz 32","32","0695476","подпитка","2 кв. 2018","75","1",
"PoWoGaz-65","65","12557239","подпитка","4 кв.2020","77","1",
"PoWoGaz-65","65","12557240","подпитка","2 кв.2020","77","1",
"PoWoGaz-1,5","15","12198241","подпитка","3 кв.2020","84","1",
"МТК-20","20","05008681","подпитка","2 кв.2020","85","1",
"ЛК-15Х","15","7159241","подпитка","2 кв. 2017","87","1",
"ЛК15-Х","15","6299640","хозбыт","2 кв. 2020","88","1",
"ЛК-20Х","20","200703011229","подпитка","2 кв. 2022","88","1",
"SmartС+ JS 1,6-0,2","15","63154810","подпитка","3кв.2023","89","1",
"СВ-15Х","15","423477","гвс","2 кв.2021","90","1",
"СВ-15Х","15","423476","подпитка","2 кв.2021","90","1",
"PoWoGaz-1,5","15","12204947","хозбыт","4 кв. 2020","90","1",
"SmartС+ JS 1,6-0,2","15","63154846","подпитка","3кв.2023","92","1",
"SmartС+ JS 1,6-0,2","15","63154847","подпитка","3кв.2023","93","1",
"SmartС+ JS 1,6-0,2","15","63154826","подпитка","3 кв.2023","94","1",
"ЛК-15Х","15","0044527","хозбыт","2 кв. 2018","98","1",
"ЛК-15Х","15","0053849","подпитка","2 кв. 2018","98","1",
"СВ-15Х","15","299689","подпитка","3 кв. 2017","99","1",
"ЛК-15Х","15","0209525","подпитка","3 кв. 2018","102","1",
"ЛК-15Х","15","7159630","подпитка","3 кв. 2018","102","1",
"ЛК-15Х","15","0209474","подпитка","3 кв.2018","103","1",
"ЛК-15","15","7159174","подпитка","2 кв. 2018","105","1",
"ЛК-20Х","20","0013823","подпитка","3 кв.2018","107","1",
"SmartС+ JS 1,6-0,2","15","63154852","подпитка","3кв.2023","108","1",
"Unimag-2.5","20","12204946","подпитка","3 кв.2020","109","1",
"PoWoGaz-2.5","20","12205274","подпитка","3 кв.2020","109","1",
"PoWoGaz-15","15","12204945","хозбыт","3 кв.2020","109","1",
"SmartС+ JS 2.5-G1-0,2","20","61943598","подпитка","3кв.2023","110","1",
"ВСКМ-40","40","10584","подпитка","2 кв.2017","111","1",
"Residia-Jet-1.5","15","10869753","подпитка","4 кв.2020","115","1",
"СТВ-80","80","041680","подпитка","2 кв.2018","116","1",
"Sensus-1,5","15","10869755","подпитка","4 кв.2020","120","1",
"PoWoGaz-2,5","20","12198245","хозбыт","3 кв.2020","121","1",
"ЛК-15Х","15","0271579","подпитка","1 кв. 2018","123","1",
"ЛК-15Х","15","7260376","подпитка","1 кв. 2018","123","1",
"SmartС+ GS 1,6-0,2","15","64087469","подпитка","3кв.2023","124","1",
"СВ-15Г","15","299689","подпитка","4 кв. 2021","125","1",
"ЛК-15X","15","7159080","подпитка","4 кв.2019","127","1",
"ЛК-15Х","15","0044528","хозбыт","3 кв.2020","128","1",
"ЛК-15Х","15","0209472","подпитка","4 кв.2020","128","1",
"PoWoGaz-40","40","10696988","подпитка","1 кв.2020","131","1","снят на поверку"
"Sensus-420","20","1811488736","подпитка","n/a","143","1",
"Sensus-420PC","40","1811518406","подпитка","n/a","144","1",
"SmartС+ JS 1,6-0,2","15","63154769","хозбыт","3кв.2023","146","1",
